INDEX VERSION 1.131+C:\Users\ruben\OneDrive\Grado Superior 2019-20\Proyecto Final\ProyectoRubenEscudero\.metadata\.plugins\org.eclipse.jdt.core
249123784.index
2060039664.index
3973945260.index
1151569180.index
2845807539.index
2772419465.index
2417492009.index
2975910402.index
2755271588.index
364096953.index
320528857.index
2116909644.index
3342043930.index
3384131066.index
1459523266.index
2073203050.index
165794779.index
4043816696.index
646436966.index
4120324546.index
379664343.index
4069293921.index
3572716771.index
490830976.index
3429681154.index
2313194960.index
753608048.index
